SHA256_HASH/Hash.vcd
$date
	Wed Apr 17 12:37:26 2024
$end
$version
	Icarus Verilog
$end
$timescale
	1ps
$end
$scope module SHA256_testbench $end
$var wire 1 ! wclk $end
$var wire 32 " wdata [31:0] $end
$var wire 1 # wrd $end
$var wire 1 $ wrst $end
$var wire 1 % wsoc $end
$var wire 1 & weoc $end
$var reg 32 ' hash [31:0] $end
$var reg 1 ( rclk $end
$var reg 32 ) rdata [31:0] $end
$var reg 1 # rrd $end
$var reg 1 $ rrst $end
$var reg 1 % rsoc $end
$var integer 32 * file [31:0] $end
$var integer 32 + i [31:0] $end
$var integer 32 , msg_blocks [31:0] $end
$scope module dut $end
$var wire 1 ! clk $end
$var wire 32 - data [31:0] $end
$var wire 1 & eoc $end
$var wire 32 . idata [31:0] $end
$var wire 1 / ird $end
$var wire 32 0 odata [31:0] $end
$var wire 1 # rd $end
$var wire 1 $ rst $end
$var wire 1 1 rst_n $end
$var wire 1 2 sel $end
$var wire 1 % soc $end
$var wire 1 3 soc_n $end
$var wire 32 4 msg [31:0] $end
$var wire 32 5 k [31:0] $end
$var wire 1 6 ieoc $end
$var wire 256 7 hash [255:0] $end
$var wire 6 8 addr [5:0] $end
$var wire 3 9 abc [2:0] $end
$var reg 32 : mux_out [31:0] $end
$scope module u0 $end
$var wire 1 ! clk $end
$var wire 1 ; dQ0 $end
$var wire 1 < dQ1 $end
$var wire 1 = dQ2 $end
$var wire 1 > dQ3 $end
$var wire 1 ? dQ4 $end
$var wire 1 @ dQ5 $end
$var wire 1 A dQ6 $end
$var wire 1 6 eoc $end
$var wire 1 B eoc_n $end
$var wire 1 / rd $end
$var wire 1 3 soc_n $end
$var wire 1 C wQ0 $end
$var wire 1 D wQ1 $end
$var wire 1 E wQ2 $end
$var wire 1 F wQ3 $end
$var wire 1 G wQ4 $end
$var wire 1 H wQ5 $end
$var wire 1 I wQ6 $end
$var wire 6 J addr [5:0] $end
$var reg 1 K Q0 $end
$var reg 1 L Q1 $end
$var reg 1 M Q2 $end
$var reg 1 N Q3 $end
$var reg 1 O Q4 $end
$var reg 1 P Q5 $end
$var reg 1 Q Q6 $end
$upscope $end
$scope module u1 $end
$var wire 6 R addr [5:0] $end
$var wire 32 S out [31:0] $end
$var reg 32 T cnst [31:0] $end
$upscope $end
$scope module u2 $end
$var wire 32 U a0 [31:0] $end
$var wire 32 V a1 [31:0] $end
$var wire 32 W a14 [31:0] $end
$var wire 32 X a9 [31:0] $end
$var wire 1 ! clk $end
$var wire 32 Y in [31:0] $end
$var wire 32 Z out [31:0] $end
$var wire 1 2 sel $end
$var wire 32 [ sum [31:0] $end
$var wire 32 \ sig1 [31:0] $end
$var wire 32 ] sig0 [31:0] $end
$var wire 32 ^ mux_out [31:0] $end
$scope module obj0 $end
$var wire 32 _ in [31:0] $end
$var wire 32 ` out [31:0] $end
$scope module R18 $end
$var wire 32 a in [31:0] $end
$var wire 32 b out [31:0] $end
$upscope $end
$scope module R7 $end
$var wire 32 c in [31:0] $end
$var wire 32 d out [31:0] $end
$upscope $end
$scope module S3 $end
$var wire 32 e in [31:0] $end
$var wire 32 f out [31:0] $end
$upscope $end
$upscope $end
$scope module obj1 $end
$var wire 32 g in [31:0] $end
$var wire 32 h out [31:0] $end
$var wire 32 i o3 [31:0] $end
$var wire 32 j o2 [31:0] $end
$var wire 32 k o1 [31:0] $end
$scope module R18 $end
$var wire 32 l in [31:0] $end
$var wire 32 m out [31:0] $end
$upscope $end
$scope module R7 $end
$var wire 32 n in [31:0] $end
$var wire 32 o out [31:0] $end
$upscope $end
$scope module S3 $end
$var wire 32 p in [31:0] $end
$var wire 32 q out [31:0] $end
$upscope $end
$upscope $end
$scope module sum_out $end
$var wire 32 r a [31:0] $end
$var wire 32 s b [31:0] $end
$var wire 32 t c [31:0] $end
$var wire 32 u d [31:0] $end
$var wire 32 v out [31:0] $end
$upscope $end
$upscope $end
$scope module u3 $end
$var wire 32 w Kt [31:0] $end
$var wire 32 x Wt [31:0] $end
$var wire 1 ! clk $end
$var wire 1 6 eoc $end
$var wire 1 $ rst $end
$var wire 1 % soc $end
$var wire 32 y se [31:0] $end
$var wire 32 z sa [31:0] $end
$var wire 32 { maj [31:0] $end
$var wire 256 | hash [255:0] $end
$var wire 32 } ch [31:0] $end
$var wire 32 ~ addE [31:0] $end
$var wire 32 !" addA [31:0] $end
$var wire 32 "" T2 [31:0] $end
$var wire 32 #" T1 [31:0] $end
$var wire 32 $" Hh [31:0] $end
$var wire 32 %" Hg [31:0] $end
$var wire 32 &" Hf [31:0] $end
$var wire 32 '" He [31:0] $end
$var wire 32 (" Hd [31:0] $end
$var wire 32 )" Hc [31:0] $end
$var wire 32 *" Hb [31:0] $end
$var wire 32 +" Ha [31:0] $end
$var wire 32 ," H [31:0] $end
$var wire 32 -" G [31:0] $end
$var wire 32 ." F [31:0] $end
$var wire 32 /" E [31:0] $end
$var wire 32 0" D [31:0] $end
$var wire 32 1" C [31:0] $end
$var wire 32 2" B [31:0] $end
$var wire 32 3" A [31:0] $end
$scope module uA $end
$var wire 32 4" H0 [31:0] $end
$var wire 32 5" H_out [31:0] $end
$var wire 32 6" X_out [31:0] $end
$var wire 1 ! clk $end
$var wire 1 6 eoc $end
$var wire 1 $ rst $end
$var wire 1 % soc $end
$var wire 32 7" in [31:0] $end
$var wire 32 8" dA0 [31:0] $end
$var wire 32 9" dA [31:0] $end
$var wire 32 :" add_out [31:0] $end
$var reg 32 ;" A [31:0] $end
$var reg 32 <" A0 [31:0] $end
$scope module u0 $end
$var wire 32 =" a [31:0] $end
$var wire 32 >" b [31:0] $end
$var wire 32 ?" out [31:0] $end
$upscope $end
$upscope $end
$scope module uB $end
$var wire 32 @" H0 [31:0] $end
$var wire 32 A" H_out [31:0] $end
$var wire 32 B" X_out [31:0] $end
$var wire 1 ! clk $end
$var wire 1 6 eoc $end
$var wire 32 C" in [31:0] $end
$var wire 1 $ rst $end
$var wire 1 % soc $end
$var wire 32 D" dA0 [31:0] $end
$var wire 32 E" dA [31:0] $end
$var wire 32 F" add_out [31:0] $end
$var reg 32 G" A [31:0] $end
$var reg 32 H" A0 [31:0] $end
$scope module u0 $end
$var wire 32 I" a [31:0] $end
$var wire 32 J" b [31:0] $end
$var wire 32 K" out [31:0] $end
$upscope $end
$upscope $end
$scope module uC $end
$var wire 32 L" H0 [31:0] $end
$var wire 32 M" H_out [31:0] $end
$var wire 32 N" X_out [31:0] $end
$var wire 1 ! clk $end
$var wire 1 6 eoc $end
$var wire 32 O" in [31:0] $end
$var wire 1 $ rst $end
$var wire 1 % soc $end
$var wire 32 P" dA0 [31:0] $end
$var wire 32 Q" dA [31:0] $end
$var wire 32 R" add_out [31:0] $end
$var reg 32 S" A [31:0] $end
$var reg 32 T" A0 [31:0] $end
$scope module u0 $end
$var wire 32 U" a [31:0] $end
$var wire 32 V" b [31:0] $end
$var wire 32 W" out [31:0] $end
$upscope $end
$upscope $end
$scope module uD $end
$var wire 32 X" H0 [31:0] $end
$var wire 32 Y" H_out [31:0] $end
$var wire 32 Z" X_out [31:0] $end
$var wire 1 ! clk $end
$var wire 1 6 eoc $end
$var wire 32 [" in [31:0] $end
$var wire 1 $ rst $end
$var wire 1 % soc $end
$var wire 32 \" dA0 [31:0] $end
$var wire 32 ]" dA [31:0] $end
$var wire 32 ^" add_out [31:0] $end
$var reg 32 _" A [31:0] $end
$var reg 32 `" A0 [31:0] $end
$scope module u0 $end
$var wire 32 a" a [31:0] $end
$var wire 32 b" b [31:0] $end
$var wire 32 c" out [31:0] $end
$upscope $end
$upscope $end
$scope module uE $end
$var wire 32 d" H0 [31:0] $end
$var wire 32 e" H_out [31:0] $end
$var wire 32 f" X_out [31:0] $end
$var wire 1 ! clk $end
$var wire 1 6 eoc $end
$var wire 1 $ rst $end
$var wire 1 % soc $end
$var wire 32 g" in [31:0] $end
$var wire 32 h" dA0 [31:0] $end
$var wire 32 i" dA [31:0] $end
$var wire 32 j" add_out [31:0] $end
$var reg 32 k" A [31:0] $end
$var reg 32 l" A0 [31:0] $end
$scope module u0 $end
$var wire 32 m" a [31:0] $end
$var wire 32 n" b [31:0] $end
$var wire 32 o" out [31:0] $end
$upscope $end
$upscope $end
$scope module uF $end
$var wire 32 p" H0 [31:0] $end
$var wire 32 q" H_out [31:0] $end
$var wire 32 r" X_out [31:0] $end
$var wire 1 ! clk $end
$var wire 1 6 eoc $end
$var wire 32 s" in [31:0] $end
$var wire 1 $ rst $end
$var wire 1 % soc $end
$var wire 32 t" dA0 [31:0] $end
$var wire 32 u" dA [31:0] $end
$var wire 32 v" add_out [31:0] $end
$var reg 32 w" A [31:0] $end
$var reg 32 x" A0 [31:0] $end
$scope module u0 $end
$var wire 32 y" a [31:0] $end
$var wire 32 z" b [31:0] $end
$var wire 32 {" out [31:0] $end
$upscope $end
$upscope $end
$scope module uG $end
$var wire 32 |" H0 [31:0] $end
$var wire 32 }" H_out [31:0] $end
$var wire 32 ~" X_out [31:0] $end
$var wire 1 ! clk $end
$var wire 1 6 eoc $end
$var wire 32 !# in [31:0] $end
$var wire 1 $ rst $end
$var wire 1 % soc $end
$var wire 32 "# dA0 [31:0] $end
$var wire 32 ## dA [31:0] $end
$var wire 32 $# add_out [31:0] $end
$var reg 32 %# A [31:0] $end
$var reg 32 &# A0 [31:0] $end
$scope module u0 $end
$var wire 32 '# a [31:0] $end
$var wire 32 (# b [31:0] $end
$var wire 32 )# out [31:0] $end
$upscope $end
$upscope $end
$scope module uH $end
$var wire 32 *# H0 [31:0] $end
$var wire 32 +# H_out [31:0] $end
$var wire 32 ,# X_out [31:0] $end
$var wire 1 ! clk $end
$var wire 1 6 eoc $end
$var wire 32 -# in [31:0] $end
$var wire 1 $ rst $end
$var wire 1 % soc $end
$var wire 32 .# dA0 [31:0] $end
$var wire 32 /# dA [31:0] $end
$var wire 32 0# add_out [31:0] $end
$var reg 32 1# A [31:0] $end
$var reg 32 2# A0 [31:0] $end
$scope module u0 $end
$var wire 32 3# a [31:0] $end
$var wire 32 4# b [31:0] $end
$var wire 32 5# out [31:0] $end
$upscope $end
$upscope $end
$scope module ua $end
$var wire 32 6# in [31:0] $end
$var wire 32 7# out [31:0] $end
$scope module ror13 $end
$var wire 32 8# in [31:0] $end
$var wire 32 9# out [31:0] $end
$upscope $end
$scope module ror2 $end
$var wire 32 :# in [31:0] $end
$var wire 32 ;# out [31:0] $end
$upscope $end
$scope module ror22 $end
$var wire 32 <# in [31:0] $end
$var wire 32 =# out [31:0] $end
$upscope $end
$upscope $end
$scope module uaddA $end
$var wire 32 ># out [31:0] $end
$var wire 32 ?# b [31:0] $end
$var wire 32 @# a [31:0] $end
$upscope $end
$scope module uaddE $end
$var wire 32 A# a [31:0] $end
$var wire 32 B# out [31:0] $end
$var wire 32 C# b [31:0] $end
$upscope $end
$scope module uch $end
$var wire 32 D# a [31:0] $end
$var wire 32 E# b [31:0] $end
$var wire 32 F# c [31:0] $end
$var wire 32 G# out [31:0] $end
$upscope $end
$scope module ue $end
$var wire 32 H# in [31:0] $end
$var wire 32 I# out [31:0] $end
$scope module ror11 $end
$var wire 32 J# in [31:0] $end
$var wire 32 K# out [31:0] $end
$upscope $end
$scope module ror25 $end
$var wire 32 L# in [31:0] $end
$var wire 32 M# out [31:0] $end
$upscope $end
$scope module ror6 $end
$var wire 32 N# in [31:0] $end
$var wire 32 O# out [31:0] $end
$upscope $end
$upscope $end
$scope module umaj $end
$var wire 32 P# a [31:0] $end
$var wire 32 Q# b [31:0] $end
$var wire 32 R# c [31:0] $end
$var wire 32 S# out [31:0] $end
$upscope $end
$scope module ut1 $end
$var wire 32 T# a [31:0] $end
$var wire 32 U# b [31:0] $end
$var wire 32 V# c [31:0] $end
$var wire 32 W# d [31:0] $end
$var wire 32 X# e [31:0] $end
$var wire 32 Y# out [31:0] $end
$upscope $end
$scope module ut2 $end
$var wire 32 Z# a [31:0] $end
$var wire 32 [# b [31:0] $end
$var wire 32 \# out [31:0] $end
$upscope $end
$upscope $end
$upscope $end
$upscope $end
$enddefinitions $end
#0
$dumpvars
bx \#
bx [#
bx Z#
bx Y#
bx X#
bx W#
bx V#
bx U#
bx T#
bx S#
bx R#
bx Q#
bx P#
bx O#
bx N#
bx M#
bx L#
bx K#
bx J#
bx I#
bx H#
bx G#
bx F#
bx E#
bx D#
bx C#
bx B#
bx A#
bx @#
bx ?#
bx >#
bx =#
bx <#
bx ;#
bx :#
bx 9#
bx 8#
bx 7#
bx 6#
bx 5#
bx 4#
bx 3#
bx 2#
bx 1#
bx 0#
bx /#
bx .#
bx -#
bx ,#
bx +#
b1011011111000001100110100011001 *#
bx )#
bx (#
bx '#
bx &#
bx %#
bx $#
bx ##
bx "#
bx !#
bx ~"
bx }"
b11111100000111101100110101011 |"
bx {"
bx z"
bx y"
bx x"
bx w"
bx v"
bx u"
bx t"
bx s"
bx r"
bx q"
b10011011000001010110100010001100 p"
bx o"
bx n"
bx m"
bx l"
bx k"
bx j"
bx i"
bx h"
bx g"
bx f"
bx e"
b1010001000011100101001001111111 d"
bx c"
bx b"
bx a"
bx `"
bx _"
bx ^"
bx ]"
bx \"
bx ["
bx Z"
bx Y"
b10100101010011111111010100111010 X"
bx W"
bx V"
bx U"
bx T"
bx S"
bx R"
bx Q"
bx P"
bx O"
bx N"
bx M"
b111100011011101111001101110010 L"
bx K"
bx J"
bx I"
bx H"
bx G"
bx F"
bx E"
bx D"
bx C"
bx B"
bx A"
b10111011011001111010111010000101 @"
bx ?"
bx >"
bx ="
bx <"
bx ;"
bx :"
bx 9"
bx 8"
bx 7"
bx 6"
bx 5"
b1101010000010011110011001100111 4"
bx 3"
bx 2"
bx 1"
bx 0"
bx /"
bx ."
bx -"
bx ,"
bx +"
bx *"
bx )"
bx ("
bx '"
bx &"
bx %"
bx $"
bx #"
bx ""
bx !"
bx ~
bx }
bx |
bx {
bx z
bx y
bx x
bx w
bx v
bx u
bx t
bx s
bx r
b0xxxxxxxxxxxxxxxxxxxxxx q
bx p
bx o
bx n
bx m
bx l
bx k
bx j
b0xxxxxxxxxxxxxxxxxxxxxx i
bx h
bx g
b0xxxxxxxxxxxxxxxxxxxxxxxxxxxxx f
bx e
bx d
bx c
bx b
bx a
bx `
bx _
bx ^
bx ]
bx \
bx [
bx Z
bx Y
bx X
bx W
bx V
bx U
bx T
bx S
bx R
xQ
xP
xO
xN
xM
xL
xK
bx J
xI
xH
xG
xF
xE
xD
xC
xB
xA
x@
x?
x>
x=
x<
x;
bx :
bx 9
bx 8
bx 7
x6
bx 5
bx 4
13
x2
11
bx 0
0/
bx .
bx -
b10 ,
bx +
b10000000000000000000000000000011 *
bx )
0(
bx '
x&
0%
0$
0#
bx "
0!
$end
#25000
01
b1101010000010011110011001100111 8"
b0 9"
b10111011011001111010111010000101 D"
b0 E"
b111100011011101111001101110010 P"
b0 Q"
b10100101010011111111010100111010 \"
b0 ]"
b1010001000011100101001001111111 h"
b0 i"
b10011011000001010110100010001100 t"
b0 u"
b11111100000111101100110101011 "#
b0 ##
b1011011111000001100110100011001 .#
b0 /#
1$
#50000
b0 ""
b0 ?#
b0 \#
b0 z
b0 7#
b0 Z#
b0 {
b0 S#
b0 [#
b0 y
b0 I#
b0 U#
b0 }
b0 G#
b0 V#
b0 9#
b0 ;#
b0 =#
b0 K#
b0 M#
b0 O#
b1101010000010011110011001100111 +"
b1101010000010011110011001100111 5"
b1101010000010011110011001100111 :"
b1101010000010011110011001100111 ?"
b1101010000010011110011001100111 <"
b1101010000010011110011001100111 >"
b0 3"
b0 6"
b0 C"
b0 6#
b0 8#
b0 :#
b0 <#
b0 P#
b0 ;"
b0 ="
b10111011011001111010111010000101 *"
b10111011011001111010111010000101 A"
b10111011011001111010111010000101 F"
b10111011011001111010111010000101 K"
b10111011011001111010111010000101 H"
b10111011011001111010111010000101 J"
b0 2"
b0 B"
b0 O"
b0 Q#
b0 G"
b0 I"
b111100011011101111001101110010 )"
b111100011011101111001101110010 M"
b111100011011101111001101110010 R"
b111100011011101111001101110010 W"
b111100011011101111001101110010 T"
b111100011011101111001101110010 V"
b0 1"
b0 N"
b0 ["
b0 R#
b0 S"
b0 U"
b10100101010011111111010100111010 ("
b10100101010011111111010100111010 Y"
b10100101010011111111010100111010 ^"
b10100101010011111111010100111010 c"
b10100101010011111111010100111010 `"
b10100101010011111111010100111010 b"
b0 0"
b0 Z"
b0 A#
b0 _"
b0 a"
b1010001000011100101001001111111 '"
b1010001000011100101001001111111 e"
b1010001000011100101001001111111 j"
b1010001000011100101001001111111 o"
b1010001000011100101001001111111 l"
b1010001000011100101001001111111 n"
b0 /"
b0 f"
b0 s"
b0 D#
b0 H#
b0 J#
b0 L#
b0 N#
b0 k"
b0 m"
b10011011000001010110100010001100 &"
b10011011000001010110100010001100 q"
b10011011000001010110100010001100 v"
b10011011000001010110100010001100 {"
b10011011000001010110100010001100 x"
b10011011000001010110100010001100 z"
b0 ."
b0 r"
b0 !#
b0 E#
b0 w"
b0 y"
b11111100000111101100110101011 %"
b11111100000111101100110101011 }"
b11111100000111101100110101011 $#
b11111100000111101100110101011 )#
b11111100000111101100110101011 &#
b11111100000111101100110101011 (#
b0 -"
b0 ~"
b0 -#
b0 F#
b0 %#
b0 '#
b110101000001001111001100110011110111011011001111010111010000101001111000110111011110011011100101010010101001111111101010011101001010001000011100101001001111111100110110000010101101000100011000001111110000011110110011010101101011011111000001100110100011001 7
b110101000001001111001100110011110111011011001111010111010000101001111000110111011110011011100101010010101001111111101010011101001010001000011100101001001111111100110110000010101101000100011000001111110000011110110011010101101011011111000001100110100011001 |
b1011011111000001100110100011001 $"
b1011011111000001100110100011001 +#
b1011011111000001100110100011001 0#
b1011011111000001100110100011001 5#
b1011011111000001100110100011001 2#
b1011011111000001100110100011001 4#
b0 ,"
b0 ,#
b0 T#
b0 1#
b0 3#
1!
1(
#75000
11
bx 9"
bx i"
b0 +
0$
#100000
0!
0(
#125000
0;
0<
0=
0>
0?
0@
0A
b1101010000010011110011001100111 9"
b10111011011001111010111010000101 E"
b111100011011101111001101110010 Q"
b10100101010011111111010100111010 ]"
b1010001000011100101001001111111 i"
b10011011000001010110100010001100 u"
b11111100000111101100110101011 ##
b1011011111000001100110100011001 /#
03
1%
#150000
1C
02
0F
b11010100000100111100110011001110 0
b11010100000100111100110011001110 :
1B
0I
0H
0G
0E
b0 9
b1000010100010100010111110011000 5
b1000010100010100010111110011000 S
b1000010100010100010111110011000 T
b1000010100010100010111110011000 w
b1000010100010100010111110011000 W#
0D
0&
06
0Q
0P
0O
0N
0M
0L
b0 8
b0 J
b0 R
0K
b10110111110000011001101000110010 /#
b10110111110000011001101000110010 .#
b111111000001111011001101010110 ##
b111111000001111011001101010110 "#
b110110000010101101000100011000 u"
b110110000010101101000100011000 t"
b10100010000111001010010011111110 i"
b10100010000111001010010011111110 h"
b11111100001011100100110001100 }
b11111100001011100100110001100 G#
b11111100001011100100110001100 V#
b110101100001110010011100101011 y
b110101100001110010011100101011 I#
b110101100001110010011100101011 U#
b1001010100111111110101001110100 ]"
b1001010100111111110101001110100 \"
b1111000110111011110011011100100 Q"
b1111000110111011110011011100100 P"
b1110110110011110101110100001010 E"
b1110110110011110101110100001010 D"
b11010100000100111100110011001110 9"
b11010100000100111100110011001110 8"
b11001110001000001011010001111110 z
b11001110001000001011010001111110 7#
b11001110001000001011010001111110 Z#
b1000100100001001101011100101 ""
b1000100100001001101011100101 ?#
b1000100100001001101011100101 \#
b111010011011111110011001100111 {
b111010011011111110011001100111 S#
b111010011011111110011001100111 [#
b1001111111010100010000111001010 K#
b10000111001010010011111110101000 M#
b11111101010001000011100101001001 O#
b110011001110110101000001001111 9#
b11011010100000100111100110011001 ;#
b100111100110011001110110101000 =#
b10110111110000011001101000110010 $"
b10110111110000011001101000110010 +#
b10110111110000011001101000110010 0#
b10110111110000011001101000110010 5#
b1011011111000001100110100011001 ,"
b1011011111000001100110100011001 ,#
b1011011111000001100110100011001 T#
b1011011111000001100110100011001 1#
b1011011111000001100110100011001 3#
b111111000001111011001101010110 %"
b111111000001111011001101010110 }"
b111111000001111011001101010110 $#
b111111000001111011001101010110 )#
b11111100000111101100110101011 -"
b11111100000111101100110101011 ~"
b11111100000111101100110101011 -#
b11111100000111101100110101011 F#
b11111100000111101100110101011 %#
b11111100000111101100110101011 '#
b110110000010101101000100011000 &"
b110110000010101101000100011000 q"
b110110000010101101000100011000 v"
b110110000010101101000100011000 {"
b10011011000001010110100010001100 ."
b10011011000001010110100010001100 r"
b10011011000001010110100010001100 !#
b10011011000001010110100010001100 E#
b10011011000001010110100010001100 w"
b10011011000001010110100010001100 y"
b10100010000111001010010011111110 '"
b10100010000111001010010011111110 e"
b10100010000111001010010011111110 j"
b10100010000111001010010011111110 o"
b1010001000011100101001001111111 /"
b1010001000011100101001001111111 f"
b1010001000011100101001001111111 s"
b1010001000011100101001001111111 D#
b1010001000011100101001001111111 H#
b1010001000011100101001001111111 J#
b1010001000011100101001001111111 L#
b1010001000011100101001001111111 N#
b1010001000011100101001001111111 k"
b1010001000011100101001001111111 m"
b1001010100111111110101001110100 ("
b1001010100111111110101001110100 Y"
b1001010100111111110101001110100 ^"
b1001010100111111110101001110100 c"
b10100101010011111111010100111010 0"
b10100101010011111111010100111010 Z"
b10100101010011111111010100111010 A#
b10100101010011111111010100111010 _"
b10100101010011111111010100111010 a"
b1111000110111011110011011100100 )"
b1111000110111011110011011100100 M"
b1111000110111011110011011100100 R"
b1111000110111011110011011100100 W"
b111100011011101111001101110010 1"
b111100011011101111001101110010 N"
b111100011011101111001101110010 ["
b111100011011101111001101110010 R#
b111100011011101111001101110010 S"
b111100011011101111001101110010 U"
b1110110110011110101110100001010 *"
b1110110110011110101110100001010 A"
b1110110110011110101110100001010 F"
b1110110110011110101110100001010 K"
b10111011011001111010111010000101 2"
b10111011011001111010111010000101 B"
b10111011011001111010111010000101 O"
b10111011011001111010111010000101 Q#
b10111011011001111010111010000101 G"
b10111011011001111010111010000101 I"
b1101010000010011110011001100111001110110110011110101110100001010011110001101110111100110111001000100101010011111111010100111010010100010000111001010010011111110001101100000101011010001000110000011111100000111101100110101011010110111110000011001101000110010 7
b1101010000010011110011001100111001110110110011110101110100001010011110001101110111100110111001000100101010011111111010100111010010100010000111001010010011111110001101100000101011010001000110000011111100000111101100110101011010110111110000011001101000110010 |
b11010100000100111100110011001110 +"
b11010100000100111100110011001110 5"
b11010100000100111100110011001110 :"
b11010100000100111100110011001110 ?"
b1101010000010011110011001100111 3"
b1101010000010011110011001100111 6"
b1101010000010011110011001100111 C"
b1101010000010011110011001100111 6#
b1101010000010011110011001100111 8#
b1101010000010011110011001100111 :#
b1101010000010011110011001100111 <#
b1101010000010011110011001100111 P#
b1101010000010011110011001100111 ;"
b1101010000010011110011001100111 ="
1!
1(
#175000
1;
b1101010000010011110011001100111 8"
bx 9"
b10111011011001111010111010000101 D"
b1101010000010011110011001100111 E"
b111100011011101111001101110010 P"
b10111011011001111010111010000101 Q"
b10100101010011111111010100111010 \"
b111100011011101111001101110010 ]"
b1010001000011100101001001111111 h"
bx i"
b10011011000001010110100010001100 t"
b1010001000011100101001001111111 u"
b11111100000111101100110101011 "#
b10011011000001010110100010001100 ##
b1011011111000001100110100011001 .#
b11111100000111101100110101011 /#
13
0%
#200000
0!
0(
#225000
b11111010001010010100010000000011 i"
b1011101011010011110100110101110 9"
b11111010001010010100010000000011 ~
b11111010001010010100010000000011 g"
b11111010001010010100010000000011 B#
b1011101011010011110100110101110 !"
b1011101011010011110100110101110 7"
b1011101011010011110100110101110 >#
b1010100110110010100111011001001 #"
b1010100110110010100111011001001 @#
b1010100110110010100111011001001 C#
b1010100110110010100111011001001 Y#
b1100001011000010110000101100001 4
b1100001011000010110000101100001 Z
b1100001011000010110000101100001 x
b1100001011000010110000101100001 X#
b1100001011000010110000101100001 ^
b1100001011000010110000101100001 .
b1100001011000010110000101100001 Y
b1100001011000010110000101100001 "
b1100001011000010110000101100001 -
b1100001011000010110000101100001 )
#250000
1<
0;
b1 9
b1110001001101110100010010010001 5
b1110001001101110100010010010001 S
b1110001001101110100010010010001 T
b1110001001101110100010010010001 w
b1110001001101110100010010010001 W#
1D
b1 8
b1 J
b1 R
1K
b1011101011010011110100110101110 E"
b1101010000010011110011001100111 Q"
b10111011011001111010111010000101 ]"
b11111010001010010100010000000011 u"
b1010001000011100101001001111111 ##
b10011011000001010110100010001100 /#
b11010110011011011110101100011 i"
b11010111010101101110000011101001 9"
b1111101100011100010100001010001 z
b1111101100011100010100001010001 7#
b1111101100011100010100001010001 Z#
b11111000111110000001011011111000 ""
b11111000111110000001011011111000 ?#
b11111000111110000001011011111000 \#
b1111011011010011110111010100111 {
b1111011011010011110111010100111 S#
b1111011011010011110111010100111 [#
b10011011001101011110000111000101 y
b10011011001101011110000111000101 I#
b10011011001101011110000111000101 U#
b1010001000011000110100010001111 }
b1010001000011000110100010001111 G#
b1010001000011000110100010001111 V#
b1001101011100101110101101001111 9#
b10010111010110100111101001101011 ;#
b10100111101001101011100101110101 =#
b10000000011111110100010100101000 K#
b10100101000100000000111111101 M#
b1111111010001010010100010000 O#
b100101011100011001010011101100 0
b100101011100011001010011101100 :
b11000111011100111101000000010101 +"
b11000111011100111101000000010101 5"
b11000111011100111101000000010101 :"
b11000111011100111101000000010101 ?"
b1011101011010011110100110101110 3"
b1011101011010011110100110101110 6"
b1011101011010011110100110101110 C"
b1011101011010011110100110101110 6#
b1011101011010011110100110101110 8#
b1011101011010011110100110101110 :#
b1011101011010011110100110101110 <#
b1011101011010011110100110101110 P#
b1011101011010011110100110101110 ;"
b1011101011010011110100110101110 ="
b100101011100011001010011101100 *"
b100101011100011001010011101100 A"
b100101011100011001010011101100 F"
b100101011100011001010011101100 K"
b1101010000010011110011001100111 2"
b1101010000010011110011001100111 B"
b1101010000010011110011001100111 O"
b1101010000010011110011001100111 Q#
b1101010000010011110011001100111 G"
b1101010000010011110011001100111 I"
b11110111110101101010000111110111 )"
b11110111110101101010000111110111 M"
b11110111110101101010000111110111 R"
b11110111110101101010000111110111 W"
b10111011011001111010111010000101 1"
b10111011011001111010111010000101 N"
b10111011011001111010111010000101 ["
b10111011011001111010111010000101 R#
b10111011011001111010111010000101 S"
b10111011011001111010111010000101 U"
b11100001101111101110100010101100 ("
b11100001101111101110100010101100 Y"
b11100001101111101110100010101100 ^"
b11100001101111101110100010101100 c"
b111100011011101111001101110010 0"
b111100011011101111001101110010 Z"
b111100011011101111001101110010 A#
b111100011011101111001101110010 _"
b111100011011101111001101110010 a"
b1001011001101111001011010000010 '"
b1001011001101111001011010000010 e"
b1001011001101111001011010000010 j"
b1001011001101111001011010000010 o"
b11111010001010010100010000000011 /"
b11111010001010010100010000000011 f"
b11111010001010010100010000000011 s"
b11111010001010010100010000000011 D#
b11111010001010010100010000000011 H#
b11111010001010010100010000000011 J#
b11111010001010010100010000000011 L#
b11111010001010010100010000000011 N#
b11111010001010010100010000000011 k"
b11111010001010010100010000000011 m"
b11101100000100111011101100001011 &"
b11101100000100111011101100001011 q"
b11101100000100111011101100001011 v"
b11101100000100111011101100001011 {"
b1010001000011100101001001111111 ."
b1010001000011100101001001111111 r"
b1010001000011100101001001111111 !#
b1010001000011100101001001111111 E#
b1010001000011100101001001111111 w"
b1010001000011100101001001111111 y"
b10111010100010010100001000110111 %"
b10111010100010010100001000110111 }"
b10111010100010010100001000110111 $#
b10111010100010010100001000110111 )#
b10011011000001010110100010001100 -"
b10011011000001010110100010001100 ~"
b10011011000001010110100010001100 -#
b10011011000001010110100010001100 F#
b10011011000001010110100010001100 %#
b10011011000001010110100010001100 '#
b1100011101110011110100000001010100100101011100011001010011101100111101111101011010100001111101111110000110111110111010001010110001001011001101111001011010000010111011000001001110111011000010111011101010001001010000100011011101111011011001001010011011000100 7
b1100011101110011110100000001010100100101011100011001010011101100111101111101011010100001111101111110000110111110111010001010110001001011001101111001011010000010111011000001001110111011000010111011101010001001010000100011011101111011011001001010011011000100 |
b1111011011001001010011011000100 $"
b1111011011001001010011011000100 +#
b1111011011001001010011011000100 0#
b1111011011001001010011011000100 5#
b11010110011011011110101100011 ~
b11010110011011011110101100011 g"
b11010110011011011110101100011 B#
b11010111010101101110000011101001 !"
b11010111010101101110000011101001 7"
b11010111010101101110000011101001 >#
b11011110010111101100100111110001 #"
b11011110010111101100100111110001 @#
b11011110010111101100100111110001 C#
b11011110010111101100100111110001 Y#
b11111100000111101100110101011 ,"
b11111100000111101100110101011 ,#
b11111100000111101100110101011 T#
b11111100000111101100110101011 1#
b11111100000111101100110101011 3#
1!
1(
#300000
0!
0(
