SHA256_HASH/Hash.vcd
$date
	Sun Apr 21 11:21:11 2024
$end
$version
	Icarus Verilog
$end
$timescale
	1ps
$end
$scope module SHA256_testbench $end
$var wire 1 ! wclk $end
$var wire 32 " wdata [31:0] $end
$var wire 1 # wrd $end
$var wire 1 $ wrst $end
$var wire 1 % wsoc $end
$var wire 32 & whash_out [31:0] $end
$var wire 1 ' weoc $end
$var reg 32 ( hash [31:0] $end
$var reg 1 ) rclk $end
$var reg 32 * rdata [31:0] $end
$var reg 1 # rrd $end
$var reg 1 $ rrst $end
$var reg 1 % rsoc $end
$var integer 32 + file [31:0] $end
$var integer 32 , i [31:0] $end
$var integer 32 - msg_blocks [31:0] $end
$scope module dut $end
$var wire 1 ! clk $end
$var wire 32 . data [31:0] $end
$var wire 1 ' eoc $end
$var wire 32 / hash_out [31:0] $end
$var wire 32 0 idata [31:0] $end
$var wire 1 1 ird $end
$var wire 32 2 odata [31:0] $end
$var wire 1 # rd $end
$var wire 1 $ rst $end
$var wire 1 3 rst_n $end
$var wire 1 4 sel $end
$var wire 1 % soc $end
$var wire 1 5 soc_n $end
$var wire 32 6 msg [31:0] $end
$var wire 32 7 k [31:0] $end
$var wire 1 8 ieoc $end
$var wire 256 9 hash [255:0] $end
$var wire 6 : addr [5:0] $end
$var wire 3 ; abc [2:0] $end
$var reg 32 < mux_out [31:0] $end
$scope module u0 $end
$var wire 1 ! clk $end
$var wire 1 = dQ0 $end
$var wire 1 > dQ1 $end
$var wire 1 ? dQ2 $end
$var wire 1 @ dQ3 $end
$var wire 1 A dQ4 $end
$var wire 1 B dQ5 $end
$var wire 1 C dQ6 $end
$var wire 1 8 eoc $end
$var wire 1 D eoc_n $end
$var wire 1 1 rd $end
$var wire 1 5 soc_n $end
$var wire 1 E wQ0 $end
$var wire 1 F wQ1 $end
$var wire 1 G wQ2 $end
$var wire 1 H wQ3 $end
$var wire 1 I wQ4 $end
$var wire 1 J wQ5 $end
$var wire 1 K wQ6 $end
$var wire 6 L addr [5:0] $end
$var reg 1 M Q0 $end
$var reg 1 N Q1 $end
$var reg 1 O Q2 $end
$var reg 1 P Q3 $end
$var reg 1 Q Q4 $end
$var reg 1 R Q5 $end
$var reg 1 S Q6 $end
$upscope $end
$scope module u1 $end
$var wire 6 T addr [5:0] $end
$var wire 32 U out [31:0] $end
$var reg 32 V cnst [31:0] $end
$upscope $end
$scope module u2 $end
$var wire 32 W a0 [31:0] $end
$var wire 32 X a1 [31:0] $end
$var wire 32 Y a14 [31:0] $end
$var wire 32 Z a9 [31:0] $end
$var wire 1 ! clk $end
$var wire 32 [ in [31:0] $end
$var wire 32 \ out [31:0] $end
$var wire 1 4 sel $end
$var wire 32 ] sum [31:0] $end
$var wire 32 ^ sig1 [31:0] $end
$var wire 32 _ sig0 [31:0] $end
$var wire 32 ` mux_out [31:0] $end
$scope module obj0 $end
$var wire 32 a in [31:0] $end
$var wire 32 b out [31:0] $end
$scope module R18 $end
$var wire 32 c in [31:0] $end
$var wire 32 d out [31:0] $end
$upscope $end
$scope module R7 $end
$var wire 32 e in [31:0] $end
$var wire 32 f out [31:0] $end
$upscope $end
$scope module S3 $end
$var wire 32 g in [31:0] $end
$var wire 32 h out [31:0] $end
$upscope $end
$upscope $end
$scope module obj1 $end
$var wire 32 i in [31:0] $end
$var wire 32 j out [31:0] $end
$var wire 32 k o3 [31:0] $end
$var wire 32 l o2 [31:0] $end
$var wire 32 m o1 [31:0] $end
$scope module R18 $end
$var wire 32 n in [31:0] $end
$var wire 32 o out [31:0] $end
$upscope $end
$scope module R7 $end
$var wire 32 p in [31:0] $end
$var wire 32 q out [31:0] $end
$upscope $end
$scope module S3 $end
$var wire 32 r in [31:0] $end
$var wire 32 s out [31:0] $end
$upscope $end
$upscope $end
$scope module sum_out $end
$var wire 32 t a [31:0] $end
$var wire 32 u b [31:0] $end
$var wire 32 v c [31:0] $end
$var wire 32 w d [31:0] $end
$var wire 32 x out [31:0] $end
$upscope $end
$upscope $end
$scope module u3 $end
$var wire 32 y Kt [31:0] $end
$var wire 32 z Wt [31:0] $end
$var wire 1 ! clk $end
$var wire 1 8 eoc $end
$var wire 1 $ rst $end
$var wire 1 % soc $end
$var wire 32 { se [31:0] $end
$var wire 32 | sa [31:0] $end
$var wire 32 } maj [31:0] $end
$var wire 256 ~ hash [255:0] $end
$var wire 32 !" ch [31:0] $end
$var wire 32 "" addE [31:0] $end
$var wire 32 #" addA [31:0] $end
$var wire 32 $" T2 [31:0] $end
$var wire 32 %" T1 [31:0] $end
$var wire 32 &" Hh [31:0] $end
$var wire 32 '" Hg [31:0] $end
$var wire 32 (" Hf [31:0] $end
$var wire 32 )" He [31:0] $end
$var wire 32 *" Hd [31:0] $end
$var wire 32 +" Hc [31:0] $end
$var wire 32 ," Hb [31:0] $end
$var wire 32 -" Ha [31:0] $end
$var wire 32 ." H [31:0] $end
$var wire 32 /" G [31:0] $end
$var wire 32 0" F [31:0] $end
$var wire 32 1" E [31:0] $end
$var wire 32 2" D [31:0] $end
$var wire 32 3" C [31:0] $end
$var wire 32 4" B [31:0] $end
$var wire 32 5" A [31:0] $end
$scope module uA $end
$var wire 32 6" H0 [31:0] $end
$var wire 32 7" H_out [31:0] $end
$var wire 32 8" X_out [31:0] $end
$var wire 1 ! clk $end
$var wire 1 8 eoc $end
$var wire 1 $ rst $end
$var wire 1 % soc $end
$var wire 32 9" in [31:0] $end
$var wire 32 :" dA0 [31:0] $end
$var wire 32 ;" dA [31:0] $end
$var wire 32 <" add_out [31:0] $end
$var reg 32 =" A [31:0] $end
$var reg 32 >" A0 [31:0] $end
$scope module u0 $end
$var wire 32 ?" a [31:0] $end
$var wire 32 @" b [31:0] $end
$var wire 32 A" out [31:0] $end
$upscope $end
$upscope $end
$scope module uB $end
$var wire 32 B" H0 [31:0] $end
$var wire 32 C" H_out [31:0] $end
$var wire 32 D" X_out [31:0] $end
$var wire 1 ! clk $end
$var wire 1 8 eoc $end
$var wire 32 E" in [31:0] $end
$var wire 1 $ rst $end
$var wire 1 % soc $end
$var wire 32 F" dA0 [31:0] $end
$var wire 32 G" dA [31:0] $end
$var wire 32 H" add_out [31:0] $end
$var reg 32 I" A [31:0] $end
$var reg 32 J" A0 [31:0] $end
$scope module u0 $end
$var wire 32 K" a [31:0] $end
$var wire 32 L" b [31:0] $end
$var wire 32 M" out [31:0] $end
$upscope $end
$upscope $end
$scope module uC $end
$var wire 32 N" H0 [31:0] $end
$var wire 32 O" H_out [31:0] $end
$var wire 32 P" X_out [31:0] $end
$var wire 1 ! clk $end
$var wire 1 8 eoc $end
$var wire 32 Q" in [31:0] $end
$var wire 1 $ rst $end
$var wire 1 % soc $end
$var wire 32 R" dA0 [31:0] $end
$var wire 32 S" dA [31:0] $end
$var wire 32 T" add_out [31:0] $end
$var reg 32 U" A [31:0] $end
$var reg 32 V" A0 [31:0] $end
$scope module u0 $end
$var wire 32 W" a [31:0] $end
$var wire 32 X" b [31:0] $end
$var wire 32 Y" out [31:0] $end
$upscope $end
$upscope $end
$scope module uD $end
$var wire 32 Z" H0 [31:0] $end
$var wire 32 [" H_out [31:0] $end
$var wire 32 \" X_out [31:0] $end
$var wire 1 ! clk $end
$var wire 1 8 eoc $end
$var wire 32 ]" in [31:0] $end
$var wire 1 $ rst $end
$var wire 1 % soc $end
$var wire 32 ^" dA0 [31:0] $end
$var wire 32 _" dA [31:0] $end
$var wire 32 `" add_out [31:0] $end
$var reg 32 a" A [31:0] $end
$var reg 32 b" A0 [31:0] $end
$scope module u0 $end
$var wire 32 c" a [31:0] $end
$var wire 32 d" b [31:0] $end
$var wire 32 e" out [31:0] $end
$upscope $end
$upscope $end
$scope module uE $end
$var wire 32 f" H0 [31:0] $end
$var wire 32 g" H_out [31:0] $end
$var wire 32 h" X_out [31:0] $end
$var wire 1 ! clk $end
$var wire 1 8 eoc $end
$var wire 1 $ rst $end
$var wire 1 % soc $end
$var wire 32 i" in [31:0] $end
$var wire 32 j" dA0 [31:0] $end
$var wire 32 k" dA [31:0] $end
$var wire 32 l" add_out [31:0] $end
$var reg 32 m" A [31:0] $end
$var reg 32 n" A0 [31:0] $end
$scope module u0 $end
$var wire 32 o" a [31:0] $end
$var wire 32 p" b [31:0] $end
$var wire 32 q" out [31:0] $end
$upscope $end
$upscope $end
$scope module uF $end
$var wire 32 r" H0 [31:0] $end
$var wire 32 s" H_out [31:0] $end
$var wire 32 t" X_out [31:0] $end
$var wire 1 ! clk $end
$var wire 1 8 eoc $end
$var wire 32 u" in [31:0] $end
$var wire 1 $ rst $end
$var wire 1 % soc $end
$var wire 32 v" dA0 [31:0] $end
$var wire 32 w" dA [31:0] $end
$var wire 32 x" add_out [31:0] $end
$var reg 32 y" A [31:0] $end
$var reg 32 z" A0 [31:0] $end
$scope module u0 $end
$var wire 32 {" a [31:0] $end
$var wire 32 |" b [31:0] $end
$var wire 32 }" out [31:0] $end
$upscope $end
$upscope $end
$scope module uG $end
$var wire 32 ~" H0 [31:0] $end
$var wire 32 !# H_out [31:0] $end
$var wire 32 "# X_out [31:0] $end
$var wire 1 ! clk $end
$var wire 1 8 eoc $end
$var wire 32 ## in [31:0] $end
$var wire 1 $ rst $end
$var wire 1 % soc $end
$var wire 32 $# dA0 [31:0] $end
$var wire 32 %# dA [31:0] $end
$var wire 32 &# add_out [31:0] $end
$var reg 32 '# A [31:0] $end
$var reg 32 (# A0 [31:0] $end
$scope module u0 $end
$var wire 32 )# a [31:0] $end
$var wire 32 *# b [31:0] $end
$var wire 32 +# out [31:0] $end
$upscope $end
$upscope $end
$scope module uH $end
$var wire 32 ,# H0 [31:0] $end
$var wire 32 -# H_out [31:0] $end
$var wire 32 .# X_out [31:0] $end
$var wire 1 ! clk $end
$var wire 1 8 eoc $end
$var wire 32 /# in [31:0] $end
$var wire 1 $ rst $end
$var wire 1 % soc $end
$var wire 32 0# dA0 [31:0] $end
$var wire 32 1# dA [31:0] $end
$var wire 32 2# add_out [31:0] $end
$var reg 32 3# A [31:0] $end
$var reg 32 4# A0 [31:0] $end
$scope module u0 $end
$var wire 32 5# a [31:0] $end
$var wire 32 6# b [31:0] $end
$var wire 32 7# out [31:0] $end
$upscope $end
$upscope $end
$scope module ua $end
$var wire 32 8# in [31:0] $end
$var wire 32 9# out [31:0] $end
$scope module ror13 $end
$var wire 32 :# in [31:0] $end
$var wire 32 ;# out [31:0] $end
$upscope $end
$scope module ror2 $end
$var wire 32 <# in [31:0] $end
$var wire 32 =# out [31:0] $end
$upscope $end
$scope module ror22 $end
$var wire 32 ># in [31:0] $end
$var wire 32 ?# out [31:0] $end
$upscope $end
$upscope $end
$scope module uaddA $end
$var wire 32 @# out [31:0] $end
$var wire 32 A# b [31:0] $end
$var wire 32 B# a [31:0] $end
$upscope $end
$scope module uaddE $end
$var wire 32 C# a [31:0] $end
$var wire 32 D# out [31:0] $end
$var wire 32 E# b [31:0] $end
$upscope $end
$scope module uch $end
$var wire 32 F# a [31:0] $end
$var wire 32 G# b [31:0] $end
$var wire 32 H# c [31:0] $end
$var wire 32 I# out [31:0] $end
$upscope $end
$scope module ue $end
$var wire 32 J# in [31:0] $end
$var wire 32 K# out [31:0] $end
$scope module ror11 $end
$var wire 32 L# in [31:0] $end
$var wire 32 M# out [31:0] $end
$upscope $end
$scope module ror25 $end
$var wire 32 N# in [31:0] $end
$var wire 32 O# out [31:0] $end
$upscope $end
$scope module ror6 $end
$var wire 32 P# in [31:0] $end
$var wire 32 Q# out [31:0] $end
$upscope $end
$upscope $end
$scope module umaj $end
$var wire 32 R# a [31:0] $end
$var wire 32 S# b [31:0] $end
$var wire 32 T# c [31:0] $end
$var wire 32 U# out [31:0] $end
$upscope $end
$scope module ut1 $end
$var wire 32 V# a [31:0] $end
$var wire 32 W# b [31:0] $end
$var wire 32 X# c [31:0] $end
$var wire 32 Y# d [31:0] $end
$var wire 32 Z# e [31:0] $end
$var wire 32 [# out [31:0] $end
$upscope $end
$scope module ut2 $end
$var wire 32 \# a [31:0] $end
$var wire 32 ]# b [31:0] $end
$var wire 32 ^# out [31:0] $end
$upscope $end
$upscope $end
$upscope $end
$upscope $end
$enddefinitions $end
#0
$dumpvars
bx ^#
bx ]#
bx \#
bx [#
bx Z#
bx Y#
bx X#
bx W#
bx V#
bx U#
bx T#
bx S#
bx R#
bx Q#
bx P#
bx O#
bx N#
bx M#
bx L#
bx K#
bx J#
bx I#
bx H#
bx G#
bx F#
bx E#
bx D#
bx C#
bx B#
bx A#
bx @#
bx ?#
bx >#
bx =#
bx <#
bx ;#
bx :#
bx 9#
bx 8#
bx 7#
bx 6#
bx 5#
bx 4#
bx 3#
bx 2#
bx 1#
bx 0#
bx /#
bx .#
bx -#
b1011011111000001100110100011001 ,#
bx +#
bx *#
bx )#
bx (#
bx '#
bx &#
bx %#
bx $#
bx ##
bx "#
bx !#
b11111100000111101100110101011 ~"
bx }"
bx |"
bx {"
bx z"
bx y"
bx x"
bx w"
bx v"
bx u"
bx t"
bx s"
b10011011000001010110100010001100 r"
bx q"
bx p"
bx o"
bx n"
bx m"
bx l"
bx k"
bx j"
bx i"
bx h"
bx g"
b1010001000011100101001001111111 f"
bx e"
bx d"
bx c"
bx b"
bx a"
bx `"
bx _"
bx ^"
bx ]"
bx \"
bx ["
b10100101010011111111010100111010 Z"
bx Y"
bx X"
bx W"
bx V"
bx U"
bx T"
bx S"
bx R"
bx Q"
bx P"
bx O"
b111100011011101111001101110010 N"
bx M"
bx L"
bx K"
bx J"
bx I"
bx H"
bx G"
bx F"
bx E"
bx D"
bx C"
b10111011011001111010111010000101 B"
bx A"
bx @"
bx ?"
bx >"
bx ="
bx <"
bx ;"
bx :"
bx 9"
bx 8"
bx 7"
b1101010000010011110011001100111 6"
bx 5"
bx 4"
bx 3"
bx 2"
bx 1"
bx 0"
bx /"
bx ."
bx -"
bx ,"
bx +"
bx *"
bx )"
bx ("
bx '"
bx &"
bx %"
bx $"
bx #"
bx ""
bx !"
bx ~
bx }
bx |
bx {
bx z
bx y
bx x
bx w
bx v
bx u
bx t
b0xxxxxxxxxxxxxxxxxxxxxx s
bx r
bx q
bx p
bx o
bx n
bx m
bx l
b0xxxxxxxxxxxxxxxxxxxxxx k
bx j
bx i
b0xxxxxxxxxxxxxxxxxxxxxxxxxxxxx h
bx g
bx f
bx e
bx d
bx c
bx b
bx a
bx `
bx _
bx ^
bx ]
bx \
bx [
bx Z
bx Y
bx X
bx W
bx V
bx U
bx T
xS
xR
xQ
xP
xO
xN
xM
bx L
xK
xJ
xI
xH
xG
xF
xE
xD
xC
xB
xA
x@
x?
x>
x=
bx <
bx ;
bx :
bx 9
x8
bx 7
bx 6
15
x4
13
bx 2
01
bx 0
bx /
bx .
b10 -
bx ,
b10000000000000000000000000000011 +
bx *
0)
bx (
x'
bx &
0%
0$
0#
bx "
0!
$end
#25000
03
b1101010000010011110011001100111 :"
b0 ;"
b10111011011001111010111010000101 F"
b0 G"
b111100011011101111001101110010 R"
b0 S"
b10100101010011111111010100111010 ^"
b0 _"
b1010001000011100101001001111111 j"
b0 k"
b10011011000001010110100010001100 v"
b0 w"
b11111100000111101100110101011 $#
b0 %#
b1011011111000001100110100011001 0#
b0 1#
1$
#50000
b0 $"
b0 A#
b0 ^#
b0 |
b0 9#
b0 \#
b0 }
b0 U#
b0 ]#
b0 {
b0 K#
b0 W#
b0 !"
b0 I#
b0 X#
b0 ;#
b0 =#
b0 ?#
b0 M#
b0 O#
b0 Q#
b1101010000010011110011001100111 -"
b1101010000010011110011001100111 7"
b1101010000010011110011001100111 <"
b1101010000010011110011001100111 A"
b1101010000010011110011001100111 >"
b1101010000010011110011001100111 @"
b0 5"
b0 8"
b0 E"
b0 8#
b0 :#
b0 <#
b0 >#
b0 R#
b0 ="
b0 ?"
b10111011011001111010111010000101 ,"
b10111011011001111010111010000101 C"
b10111011011001111010111010000101 H"
b10111011011001111010111010000101 M"
b10111011011001111010111010000101 J"
b10111011011001111010111010000101 L"
b0 4"
b0 D"
b0 Q"
b0 S#
b0 I"
b0 K"
b111100011011101111001101110010 +"
b111100011011101111001101110010 O"
b111100011011101111001101110010 T"
b111100011011101111001101110010 Y"
b111100011011101111001101110010 V"
b111100011011101111001101110010 X"
b0 3"
b0 P"
b0 ]"
b0 T#
b0 U"
b0 W"
b10100101010011111111010100111010 *"
b10100101010011111111010100111010 ["
b10100101010011111111010100111010 `"
b10100101010011111111010100111010 e"
b10100101010011111111010100111010 b"
b10100101010011111111010100111010 d"
b0 2"
b0 \"
b0 C#
b0 a"
b0 c"
b1010001000011100101001001111111 )"
b1010001000011100101001001111111 g"
b1010001000011100101001001111111 l"
b1010001000011100101001001111111 q"
b1010001000011100101001001111111 n"
b1010001000011100101001001111111 p"
b0 1"
b0 h"
b0 u"
b0 F#
b0 J#
b0 L#
b0 N#
b0 P#
b0 m"
b0 o"
b10011011000001010110100010001100 ("
b10011011000001010110100010001100 s"
b10011011000001010110100010001100 x"
b10011011000001010110100010001100 }"
b10011011000001010110100010001100 z"
b10011011000001010110100010001100 |"
b0 0"
b0 t"
b0 ##
b0 G#
b0 y"
b0 {"
b11111100000111101100110101011 '"
b11111100000111101100110101011 !#
b11111100000111101100110101011 &#
b11111100000111101100110101011 +#
b11111100000111101100110101011 (#
b11111100000111101100110101011 *#
b0 /"
b0 "#
b0 /#
b0 H#
b0 '#
b0 )#
b110101000001001111001100110011110111011011001111010111010000101001111000110111011110011011100101010010101001111111101010011101001010001000011100101001001111111100110110000010101101000100011000001111110000011110110011010101101011011111000001100110100011001 9
b110101000001001111001100110011110111011011001111010111010000101001111000110111011110011011100101010010101001111111101010011101001010001000011100101001001111111100110110000010101101000100011000001111110000011110110011010101101011011111000001100110100011001 ~
b1011011111000001100110100011001 &"
b1011011111000001100110100011001 -#
b1011011111000001100110100011001 2#
b1011011111000001100110100011001 7#
b1011011111000001100110100011001 4#
b1011011111000001100110100011001 6#
b0 ."
b0 .#
b0 V#
b0 3#
b0 5#
1!
1)
#75000
13
bx ;"
bx k"
b0 ,
0$
#100000
0!
0)
#125000
0=
0>
0?
0@
0A
0B
0C
b1101010000010011110011001100111 ;"
b10111011011001111010111010000101 G"
b111100011011101111001101110010 S"
b10100101010011111111010100111010 _"
b1010001000011100101001001111111 k"
b10011011000001010110100010001100 w"
b11111100000111101100110101011 %#
b1011011111000001100110100011001 1#
05
1%
#150000
1E
04
0H
b11010100000100111100110011001110 &
b11010100000100111100110011001110 /
b11010100000100111100110011001110 2
b11010100000100111100110011001110 <
1D
0K
0J
0I
0G
b0 ;
b1000010100010100010111110011000 7
b1000010100010100010111110011000 U
b1000010100010100010111110011000 V
b1000010100010100010111110011000 y
b1000010100010100010111110011000 Y#
0F
0'
08
0S
0R
0Q
0P
0O
0N
b0 :
b0 L
b0 T
0M
b10110111110000011001101000110010 1#
b10110111110000011001101000110010 0#
b111111000001111011001101010110 %#
b111111000001111011001101010110 $#
b110110000010101101000100011000 w"
b110110000010101101000100011000 v"
b10100010000111001010010011111110 k"
b10100010000111001010010011111110 j"
b11111100001011100100110001100 !"
b11111100001011100100110001100 I#
b11111100001011100100110001100 X#
b110101100001110010011100101011 {
b110101100001110010011100101011 K#
b110101100001110010011100101011 W#
b1001010100111111110101001110100 _"
b1001010100111111110101001110100 ^"
b1111000110111011110011011100100 S"
b1111000110111011110011011100100 R"
b1110110110011110101110100001010 G"
b1110110110011110101110100001010 F"
b11010100000100111100110011001110 ;"
b11010100000100111100110011001110 :"
b11001110001000001011010001111110 |
b11001110001000001011010001111110 9#
b11001110001000001011010001111110 \#
b1000100100001001101011100101 $"
b1000100100001001101011100101 A#
b1000100100001001101011100101 ^#
b111010011011111110011001100111 }
b111010011011111110011001100111 U#
b111010011011111110011001100111 ]#
b1001111111010100010000111001010 M#
b10000111001010010011111110101000 O#
b11111101010001000011100101001001 Q#
b110011001110110101000001001111 ;#
b11011010100000100111100110011001 =#
b100111100110011001110110101000 ?#
b10110111110000011001101000110010 &"
b10110111110000011001101000110010 -#
b10110111110000011001101000110010 2#
b10110111110000011001101000110010 7#
b1011011111000001100110100011001 ."
b1011011111000001100110100011001 .#
b1011011111000001100110100011001 V#
b1011011111000001100110100011001 3#
b1011011111000001100110100011001 5#
b111111000001111011001101010110 '"
b111111000001111011001101010110 !#
b111111000001111011001101010110 &#
b111111000001111011001101010110 +#
b11111100000111101100110101011 /"
b11111100000111101100110101011 "#
b11111100000111101100110101011 /#
b11111100000111101100110101011 H#
b11111100000111101100110101011 '#
b11111100000111101100110101011 )#
b110110000010101101000100011000 ("
b110110000010101101000100011000 s"
b110110000010101101000100011000 x"
b110110000010101101000100011000 }"
b10011011000001010110100010001100 0"
b10011011000001010110100010001100 t"
b10011011000001010110100010001100 ##
b10011011000001010110100010001100 G#
b10011011000001010110100010001100 y"
b10011011000001010110100010001100 {"
b10100010000111001010010011111110 )"
b10100010000111001010010011111110 g"
b10100010000111001010010011111110 l"
b10100010000111001010010011111110 q"
b1010001000011100101001001111111 1"
b1010001000011100101001001111111 h"
b1010001000011100101001001111111 u"
b1010001000011100101001001111111 F#
b1010001000011100101001001111111 J#
b1010001000011100101001001111111 L#
b1010001000011100101001001111111 N#
b1010001000011100101001001111111 P#
b1010001000011100101001001111111 m"
b1010001000011100101001001111111 o"
b1001010100111111110101001110100 *"
b1001010100111111110101001110100 ["
b1001010100111111110101001110100 `"
b1001010100111111110101001110100 e"
b10100101010011111111010100111010 2"
b10100101010011111111010100111010 \"
b10100101010011111111010100111010 C#
b10100101010011111111010100111010 a"
b10100101010011111111010100111010 c"
b1111000110111011110011011100100 +"
b1111000110111011110011011100100 O"
b1111000110111011110011011100100 T"
b1111000110111011110011011100100 Y"
b111100011011101111001101110010 3"
b111100011011101111001101110010 P"
b111100011011101111001101110010 ]"
b111100011011101111001101110010 T#
b111100011011101111001101110010 U"
b111100011011101111001101110010 W"
b1110110110011110101110100001010 ,"
b1110110110011110101110100001010 C"
b1110110110011110101110100001010 H"
b1110110110011110101110100001010 M"
b10111011011001111010111010000101 4"
b10111011011001111010111010000101 D"
b10111011011001111010111010000101 Q"
b10111011011001111010111010000101 S#
b10111011011001111010111010000101 I"
b10111011011001111010111010000101 K"
b1101010000010011110011001100111001110110110011110101110100001010011110001101110111100110111001000100101010011111111010100111010010100010000111001010010011111110001101100000101011010001000110000011111100000111101100110101011010110111110000011001101000110010 9
b1101010000010011110011001100111001110110110011110101110100001010011110001101110111100110111001000100101010011111111010100111010010100010000111001010010011111110001101100000101011010001000110000011111100000111101100110101011010110111110000011001101000110010 ~
b11010100000100111100110011001110 -"
b11010100000100111100110011001110 7"
b11010100000100111100110011001110 <"
b11010100000100111100110011001110 A"
b1101010000010011110011001100111 5"
b1101010000010011110011001100111 8"
b1101010000010011110011001100111 E"
b1101010000010011110011001100111 8#
b1101010000010011110011001100111 :#
b1101010000010011110011001100111 <#
b1101010000010011110011001100111 >#
b1101010000010011110011001100111 R#
b1101010000010011110011001100111 ="
b1101010000010011110011001100111 ?"
1!
1)
#175000
1=
b1101010000010011110011001100111 :"
bx ;"
b10111011011001111010111010000101 F"
b1101010000010011110011001100111 G"
b111100011011101111001101110010 R"
b10111011011001111010111010000101 S"
b10100101010011111111010100111010 ^"
b111100011011101111001101110010 _"
b1010001000011100101001001111111 j"
bx k"
b10011011000001010110100010001100 v"
b1010001000011100101001001111111 w"
b11111100000111101100110101011 $#
b10011011000001010110100010001100 %#
b1011011111000001100110100011001 0#
b11111100000111101100110101011 1#
15
0%
#200000
0!
0)
#225000
b11111100001010010101010100000110 k"
b1011111011010011111101010110001 ;"
b11111100001010010101010100000110 ""
b11111100001010010101010100000110 i"
b11111100001010010101010100000110 D#
b1011111011010011111101010110001 #"
b1011111011010011111101010110001 9"
b1011111011010011111101010110001 @#
b1010110110110010101111111001100 %"
b1010110110110010101111111001100 B#
b1010110110110010101111111001100 E#
b1010110110110010101111111001100 [#
b1100011011000010111001001100100 6
b1100011011000010111001001100100 \
b1100011011000010111001001100100 z
b1100011011000010111001001100100 Z#
b1100011011000010111001001100100 `
b1100011011000010111001001100100 0
b1100011011000010111001001100100 [
b1100011011000010111001001100100 "
b1100011011000010111001001100100 .
b1100011011000010111001001100100 *
#250000
1>
0=
b1 ;
b1110001001101110100010010010001 7
b1110001001101110100010010010001 U
b1110001001101110100010010010001 V
b1110001001101110100010010010001 y
b1110001001101110100010010010001 Y#
1F
b1 :
b1 L
b1 T
1M
b1011111011010011111101010110001 G"
b1101010000010011110011001100111 S"
b10111011011001111010111010000101 _"
b11111100001010010101010100000110 w"
b1010001000011100101001001111111 %#
b10011011000001010110100010001100 1#
b110011000111011001111110100000 k"
b10010111110100101101101101110001 ;"
b100101101110100100000010011110 |
b100101101110100100000010011110 9#
b100101101110100100000010011110 \#
b10100001001001000010111101000011 $"
b10100001001001000010111101000011 A#
b10100001001001000010111101000011 ^#
b1111011011010011110111010100101 }
b1111011011010011110111010100101 U#
b1111011011010011110111010100101 ]#
b10101111100001011010001100000000 {
b10101111100001011010001100000000 K#
b10101111100001011010001100000000 W#
b1010011000011000111100010001110 !"
b1010011000011000111100010001110 I#
b1010011000011000111100010001110 X#
b11010101100010101111101101001111 ;#
b1010111110110100111111010101100 =#
b10100111111010101100010101111101 ?#
b10100000110111111000010100101010 M#
b10100101010101000001101111110 O#
b11011111100001010010101010100 Q#
b100101011100011001010011101100 &
b100101011100011001010011101100 /
b100101011100011001010011101100 2
b100101011100011001010011101100 <
b11001001011100111110000100011000 -"
b11001001011100111110000100011000 7"
b11001001011100111110000100011000 <"
b11001001011100111110000100011000 A"
b1011111011010011111101010110001 5"
b1011111011010011111101010110001 8"
b1011111011010011111101010110001 E"
b1011111011010011111101010110001 8#
b1011111011010011111101010110001 :#
b1011111011010011111101010110001 <#
b1011111011010011111101010110001 >#
b1011111011010011111101010110001 R#
b1011111011010011111101010110001 ="
b1011111011010011111101010110001 ?"
b100101011100011001010011101100 ,"
b100101011100011001010011101100 C"
b100101011100011001010011101100 H"
b100101011100011001010011101100 M"
b1101010000010011110011001100111 4"
b1101010000010011110011001100111 D"
b1101010000010011110011001100111 Q"
b1101010000010011110011001100111 S#
b1101010000010011110011001100111 I"
b1101010000010011110011001100111 K"
b11110111110101101010000111110111 +"
b11110111110101101010000111110111 O"
b11110111110101101010000111110111 T"
b11110111110101101010000111110111 Y"
b10111011011001111010111010000101 3"
b10111011011001111010111010000101 P"
b10111011011001111010111010000101 ]"
b10111011011001111010111010000101 T#
b10111011011001111010111010000101 U"
b10111011011001111010111010000101 W"
b11100001101111101110100010101100 *"
b11100001101111101110100010101100 ["
b11100001101111101110100010101100 `"
b11100001101111101110100010101100 e"
b111100011011101111001101110010 2"
b111100011011101111001101110010 \"
b111100011011101111001101110010 C#
b111100011011101111001101110010 a"
b111100011011101111001101110010 c"
b1001101001101111010011110000101 )"
b1001101001101111010011110000101 g"
b1001101001101111010011110000101 l"
b1001101001101111010011110000101 q"
b11111100001010010101010100000110 1"
b11111100001010010101010100000110 h"
b11111100001010010101010100000110 u"
b11111100001010010101010100000110 F#
b11111100001010010101010100000110 J#
b11111100001010010101010100000110 L#
b11111100001010010101010100000110 N#
b11111100001010010101010100000110 P#
b11111100001010010101010100000110 m"
b11111100001010010101010100000110 o"
b11101100000100111011101100001011 ("
b11101100000100111011101100001011 s"
b11101100000100111011101100001011 x"
b11101100000100111011101100001011 }"
b1010001000011100101001001111111 0"
b1010001000011100101001001111111 t"
b1010001000011100101001001111111 ##
b1010001000011100101001001111111 G#
b1010001000011100101001001111111 y"
b1010001000011100101001001111111 {"
b10111010100010010100001000110111 '"
b10111010100010010100001000110111 !#
b10111010100010010100001000110111 &#
b10111010100010010100001000110111 +#
b10011011000001010110100010001100 /"
b10011011000001010110100010001100 "#
b10011011000001010110100010001100 /#
b10011011000001010110100010001100 H#
b10011011000001010110100010001100 '#
b10011011000001010110100010001100 )#
b1100100101110011111000010001100000100101011100011001010011101100111101111101011010100001111101111110000110111110111010001010110001001101001101111010011110000101111011000001001110111011000010111011101010001001010000100011011101111011011001001010011011000100 9
b1100100101110011111000010001100000100101011100011001010011101100111101111101011010100001111101111110000110111110111010001010110001001101001101111010011110000101111011000001001110111011000010111011101010001001010000100011011101111011011001001010011011000100 ~
b1111011011001001010011011000100 &"
b1111011011001001010011011000100 -#
b1111011011001001010011011000100 2#
b1111011011001001010011011000100 7#
b110011000111011001111110100000 ""
b110011000111011001111110100000 i"
b110011000111011001111110100000 D#
b10010111110100101101101101110001 #"
b10010111110100101101101101110001 9"
b10010111110100101101101101110001 @#
b11110110101011101010110000101110 %"
b11110110101011101010110000101110 B#
b11110110101011101010110000101110 E#
b11110110101011101010110000101110 [#
b11111100000111101100110101011 ."
b11111100000111101100110101011 .#
b11111100000111101100110101011 V#
b11111100000111101100110101011 3#
b11111100000111101100110101011 5#
1!
1)
#300000
0!
0)
#325000
b1110111110010110000101110001 k"
b1110011101011101001110101000010 ;"
b1110111110010110000101110001 ""
b1110111110010110000101110001 i"
b1110111110010110000101110001 D#
b1110011101011101001110101000010 #"
b1110011101011101001110101000010 9"
b1110011101011101001110101000010 @#
b11010010100010100110110111111111 %"
b11010010100010100110110111111111 B#
b11010010100010100110110111111111 E#
b11010010100010100110110111111111 [#
b111111001111010011010000110101 6
b111111001111010011010000110101 \
b111111001111010011010000110101 z
b111111001111010011010000110101 Z#
b111111001111010011010000110101 `
b111111001111010011010000110101 0
b111111001111010011010000110101 [
b111111001111010011010000110101 "
b111111001111010011010000110101 .
b111111001111010011010000110101 *
